<?xml version="1.0" encoding="utf-8"?>
<!-- Generator: Adobe Illustrator 26.0.1, SVG Export Plug-In . SVG Version: 6.00 Build 0)  -->
<svg version="1.1" id="Layer_1" xmlns="http://www.w3.org/2000/svg" xmlns:xlink="http://www.w3.org/1999/xlink" x="0px" y="0px"
	 viewBox="0 0 6343.5 685.4" style="enable-background:new 0 0 6343.5 685.4;" xml:space="preserve">
<style type="text/css">
	.st0{fill:none;}
	.st1{enable-background:new    ;}
	.st2{font-family:'MyriadPro-Bold';}
	.st3{font-size:213.8568px;}
	.st4{fill:#FFFFFF;}
	.st5{font-size:213.6027px;}
	.st6{font-size:221.0055px;}
	.st7{font-size:219.8834px;}
	.st8{fill:#F5F5F5;stroke:#000000;stroke-width:16;stroke-miterlimit:10;}
	.st9{fill:#C00000;}
	.st10{fill:#F26322;}
	.st11{fill:#FFC000;}
	.st12{fill:#00B050;}
</style>
<g id="Layer_8">
</g>
<g id="Gage_Text">
	<path class="st0" d="M156.7,542.6l53.9,2c20.9,0.8,37.4,17.9,37.4,38.8v71.8c0,22-18.3,39.7-40.3,38.8l-53.9-2
		c-20.9-0.8-37.4-17.9-37.4-38.8v-71.8C116.4,559.4,134.7,541.7,156.7,542.6z"/>
	<text transform="matrix(1 0 0 1 99.4092 619.3455)" class="st1"><tspan x="0" y="0" class="st2 st3"> </tspan><tspan x="43.2" y="0" class="st4 st2 st3">0 </tspan></text>
	<path class="st0" d="M1611.2,544h47.7c21.5,0,38.8,17.4,38.8,38.8v35c0,21.5-17.4,38.8-38.8,38.8h-47.7
		c-21.5,0-38.8-17.4-38.8-38.8v-35C1572.3,561.4,1589.7,544,1611.2,544z"/>
	<text transform="matrix(1 0 0 1 1538.2603 620.3445)" class="st4 st2 st3"> 1 </text>
	<path class="st0" d="M3149.9,546.1L3149.9,546.1c21.5,0,38.9,17.4,38.9,38.8v89.3c0,21.5-17.4,38.8-38.8,38.8h0
		c-21.5,0-38.8-17.4-38.8-38.8V585C3111.1,563.5,3128.5,546.1,3149.9,546.1z"/>
	<text transform="matrix(1 0 0 1 3093.1084 621.4314)" class="st4 st2 st5">2</text>
	<path class="st0" d="M4634.6,579h44.5c21.5,0,38.9,17.4,38.9,38.8v29.8c0,21.5-17.4,38.8-38.9,38.8h-44.5
		c-21.5,0-38.9-17.4-38.9-38.8v-29.8C4595.7,596.4,4613.1,579,4634.6,579z"/>
	<text transform="matrix(1 0 0 1 4558.7402 626.4767)" class="st1"><tspan x="0" y="0" class="st2 st6"> </tspan><tspan x="44.6" y="0" class="st4 st2 st6">3 </tspan></text>
	<path class="st0" d="M6062.7,549.8l212-0.7c21.5-0.1,39,17.3,39,38.8v96.9c0,21.4-17.3,38.8-38.7,38.8l-212,0.7
		c-21.5,0.1-39-17.3-39-38.8v-96.9C6024,567.3,6041.3,549.9,6062.7,549.8z"/>
	<text transform="matrix(1 0 0 1 5996.3291 625.6873)" class="st4 st2 st7"> 3+ </text>
</g>
<g id="Gage">
	<path class="st8" d="M31,253.9c0-86.4,70-156.5,156.5-156.5h5903c86.4,0,156.5,70.1,156.5,156.5l0,0c0,86.4-70.1,156.5-156.5,156.5
		h-5903C101,410.4,31,340.3,31,253.9L31,253.9z"/>
	<rect x="193.2" y="152.5" class="st9" width="1441.8" height="204.7"/>
	<rect x="1636.7" y="152.5" class="st10" width="1513.3" height="204.7"/>
	<rect x="3151" y="152.5" class="st11" width="1515.9" height="204.7"/>
	<rect x="4666.9" y="152.5" class="st12" width="1415.2" height="204.7"/>
</g>
<g id="Mat_0" fill="#C00000">
	<path d="M84.3,254.9c0-56.8,46.7-102.8,104.4-102.8S293,198.1,293,254.9s-46.7,102.8-104.4,102.8
		S84.3,311.7,84.3,254.9z"/>
</g>
<g id="Mat_1" fill="#F26322">
	<path d="M1636.7,153.4l167,101.5l-167,101.5V153.4z"/>
</g>
<g id="Mat_2" fill="#FFC000">
	<path d="M3151,152.5l167,102.4l-167,102.3V152.5z"/>
</g>
<g id="Mat_3" fill="#00B050">
	<path d="M4666.9,153.4l167,101.5l-167,101.5V153.4z"/>
</g>
<g id="Mat_3+" fill="#00B050">
	<path d="M5977.7,254.4c0-56.8,46.7-102.8,104.3-102.8c57.6,0,104.4,46,104.4,102.8s-46.7,102.8-104.3,102.8
		C6024.5,357.2,5977.7,311.2,5977.7,254.4z"/>
</g>
</svg>
