<?xml version="1.0" encoding="utf-8"?>
<!-- Generator: Adobe Illustrator 26.0.1, SVG Export Plug-In . SVG Version: 6.00 Build 0)  -->
<svg version="1.1" xmlns="http://www.w3.org/2000/svg" xmlns:xlink="http://www.w3.org/1999/xlink" x="0px" y="0px"
	 viewBox="0 0 6271.1 493.7" style="enable-background:new 0 0 6271.1 493.7;" xml:space="preserve">
<style type="text/css">
	.st0{fill:none;}
	.st1{fill:#FFFFFF;}
	.st2{font-family:'MyriadPro-Bold';}
	.st3{font-size:132px;}
	.st4{fill-rule:evenodd;clip-rule:evenodd;fill:#595959;stroke:#D9D9D9;stroke-width:18.3333;stroke-miterlimit:8;}
	.st5{fill-rule:evenodd;clip-rule:evenodd;fill:#C00000;}
	.st6{fill-rule:evenodd;clip-rule:evenodd;fill:#00B050;}
	.st7{fill:#F26322;}
	.st8{fill:#FFC000;}
	.st9{fill-rule:evenodd;clip-rule:evenodd;fill:#F26322;}
	.st10{fill-rule:evenodd;clip-rule:evenodd;fill:#FFC000;}
</style>
<g id="Layer_8">
</g>
<g id="Gage_Text">
	<rect x="116.4" y="375.6" class="st0" width="131.6" height="149.6"/>
	<text transform="matrix(1 0 0 1 116.41 469.3639)" class="st1 st2 st3"> 0 </text>
	<rect x="1572.3" y="375.6" class="st0" width="125.4" height="112.7"/>
	<text transform="matrix(1 0 0 1 1572.2607 469.3649)" class="st1 st2 st3"> 1 </text>
	<rect x="3111.1" y="376.7" class="st0" width="77.7" height="167"/>
	<text transform="matrix(1 0 0 1 3111.1084 470.3872)" class="st1 st2 st3">2</text>
	<rect x="4605.8" y="384.7" class="st0" width="122.2" height="107.5"/>
	<text transform="matrix(1 0 0 1 4605.8013 478.4334)" class="st1 st2 st3"> 3 </text>
	<rect x="6024" y="383.5" class="st0" width="289.7" height="174.6"/>
	<text transform="matrix(1 0 0 1 6023.9854 477.2137)" class="st1 st2 st3"> 3+ </text>
</g>
<g id="Gage">
	<path fill="#595959" d="M31,167.5C31,81.1,101,11,187.5,11h5903c86.4,0,156.5,70.1,156.5,156.5h0c0,86.4-70.1,156.5-156.5,156.5
		l-5903,0C101,324,31,253.9,31,167.5L31,167.5z"/>
	<path fill="#C00000" d="M92,168c0-57,44.3-103.2,99-103.2h1629c54.7,0,99,46.2,99,103.2h0c0,57-44.3,103.2-99,103.2l-1629,0
		C136.3,271.2,92,225,92,168L92,168z"/>
	<path fill="#00B050" d="M4559,168c0-57,44.3-103.2,99-103.2h1424c54.7,0,99,46.2,99,103.2s-44.3,103.2-99,103.2H4658
		C4603.3,271.2,4559,225,4559,168z"/>
	<rect x="1635" y="64.8" fill="#F26322" width="1515" height="206.4"/>
	<rect x="3148.9" y="64.7" fill="#FFC000" width="1515" height="206.4"/>
</g>
<g id="Mat_0" fill="#C00000">
	<path d="M94.3,168c0-56.3,46.5-101.9,103.9-101.9S302.1,111.7,302.1,168s-46.5,101.9-103.9,101.9S94.3,224.3,94.3,168z
		"/>
</g>
<g id="Mat_1" fill="#F26322">
	<path d="M1636.7,65.2l167,102.8l-167,102.8V65.2z"/>
</g>
<g id="Mat_2" fill="#FFC000">
	<path d="M3151,65.2L3318,168l-167,102.8V65.2z"/>
</g>
<g id="Mat_3" fill="#00B050">
	<path d="M4666.9,65.2l167,102.8l-167,102.8V65.2z"/>
</g>
<g id="Mat_3+" fill="#00B050" >
	<path d="M5970.1,168c0-56.3,46.5-101.9,103.9-101.9S6178,111.7,6178,168s-46.5,101.9-103.9,101.9
		S5970.1,224.3,5970.1,168z"/>
</g>
</svg>
